{"data": [
  {"id":1,"text":"Test Task 1","completed":"no","link":"http://todo.test/dingoapi/task/1"}
],"meta":{
  "pagination":{
    "total":4,
    "count":1,
    "per_page":1,
    "current_page":1,
    "total_pages":4,
    "links":{"next":"http://todo.test/dingoapi/tasks?page=2"}
  }
}}
